Advanced statistics for physics analysis - Exercise 1
…
## Loading required package: lattice

library("tibble")

Get information on the package content and on the ais data frame.

?ais

Create a tibble from the ais data.frame.

data <- as_tibble(ais)
data

## # A tibble: 202 x 13
##      rcc   wcc    hc    hg  ferr   bmi   ssf pcBfat   lbm    ht    wt sex  
##    <dbl> <dbl> <dbl> <dbl> <dbl> <dbl> <dbl>  <dbl> <dbl> <dbl> <dbl> <fct>
##  1  3.96   7.5  37.5  12.3    60  20.6 109.    19.8  63.3  196.  78.9 f    
##  2  4.41   8.3  38.2  12.7    68  20.7 103.    21.3  58.6  190.  74.4 f    
##  3  4.14   5    36.4  11.6    21  21.9 105.    19.9  55.4  178.  69.1 f    
##  4  4.11   5.3  37.3  12.6    69  21.9 126.    23.7  57.2  185   74.9 f    
##  5  4.45   6.8  41.5  14      29  19.0  80.3   17.6  53.2  185.  64.6 f    
##  6  4.1    4.4  37.4  12.5    42  21.0  75.2   15.6  53.8  174   63.7 f    
##  7  4.31   5.3  39.6  12.8    73  21.7  87.2   20.0  60.2  186.  75.2 f    
##  8  4.42   5.7  39.9  13.2    44  20.6  97.9   22.4  48.3  174.  62.3 f    
##  9  4.3    8.9  41.1  13.5    41  22.6  75.1   18.0  54.6  171.  66.5 f    
## 10  4.51   4.4  41.6  12.7    44  19.4  65.1   15.1  53.4  180.  62.9 f    
## #  with 192 more rows, and 1 more variable: sport <fct>
…
## target: https://www.ecdc.europa.eu/sites/default/files/documents/COVID-19-geographic-disbtribution-worldwide-2020-04-12.xlsx

tmp_file <- tempfile("data", "/tmp", fileext = ext)
tmp <- curl::curl_download(target, destfile = tmp_file)
covid <- readxl::read_xlsx(tmp_file)

Examine the loaded tibble structure.

covid

## # A tibble: 10,332 x 10
##    dateRep               day month  year cases deaths countriesAndTer geoId
##    <dttm>              <dbl> <dbl> <dbl> <dbl>  <dbl> <chr>            <chr>
##  1 2020-04-12 00:00:00    12     4  2020    34      3 Afghanistan      AF   
##  2 2020-04-11 00:00:00    11     4  2020    37      0 Afghanistan      AF   
##  3 2020-04-10 00:00:00    10     4  2020    61      1 Afghanistan      AF   
##  4 2020-04-09 00:00:00     9     4  2020    56      3 Afghanistan      AF   
##  5 2020-04-08 00:00:00     8     4  2020    30      4 Afghanistan      AF   
##  6 2020-04-07 00:00:00     7     4  2020    38      0 Afghanistan      AF   
##  7 2020-04-06 00:00:00     6     4  2020    29      2 Afghanistan      AF   
##  8 2020-04-05 00:00:00     5     4  2020    35      1 Afghanistan      AF   
##  9 2020-04-04 00:00:00     4     4  2020     0      0 Afghanistan      AF   
## 10 2020-04-03 00:00:00     3     4  2020    43      0 Afghanistan      AF   
## #  with 10,322 more rows, and 2 more variables: countryterritoryCode <chr>,
## #   popData2018 <dbl>

Create a sub-tibble containing only the last day and produce a table with all the countries with number of deaths or number of new cases greater than 200.

lastDay <- subset(covid, dateRep==lubridate::today() - 1)
lastDay 

## # A tibble: 205 x 10
##    dateRep               day month  year cases deaths countriesAndTer geoId
##    <dttm>              <dbl> <dbl> <dbl> <dbl>  <dbl> <chr>            <chr>
##  1 2020-04-12 00:00:00    12     4  2020    34      3 Afghanistan      AF   
##  2 2020-04-12 00:00:00    12     4  2020    17      0 Albania          AL   
##  3 2020-04-12 00:00:00    12     4  2020    64     19 Algeria          DZ   
##  4 2020-04-12 00:00:00    12     4  2020    21      2 Andorra          AD   
##  5 2020-04-12 00:00:00    12     4  2020     0      0 Angola           AO   
##  6 2020-04-12 00:00:00    12     4  2020     0      0 Anguilla         AI   
##  7 2020-04-12 00:00:00    12     4  2020     0      0 Antigua_and_Bar AG   
##  8 2020-04-12 00:00:00    12     4  2020   162      7 Argentina        AR   
##  9 2020-04-12 00:00:00    12     4  2020    30      2 Armenia          AM   
## 10 2020-04-12 00:00:00    12     4  2020     6      0 Aruba            AW   
## #  with 195 more rows, and 2 more variables: countryterritoryCode <chr>,
## #   popData2018 <dbl>
…
covidC <- covid[order(covid$dateRep),]
covidC <- covidC[covidC$countriesAndTerritories %in% top10cases$countriesAndTerritories,]
covidC

## # A tibble: 963 x 10
##    dateRep               day month  year cases deaths countriesAndTer geoId
##    <dttm>              <dbl> <dbl> <dbl> <dbl>  <dbl> <chr>            <chr>
##  1 2019-12-31 00:00:00    31    12  2019    27      0 China            CN   
##  2 2019-12-31 00:00:00    31    12  2019     0      0 Brazil           BR   
##  3 2019-12-31 00:00:00    31    12  2019     0      0 France           FR   
##  4 2019-12-31 00:00:00    31    12  2019     0      0 Germany          DE   
##  5 2019-12-31 00:00:00    31    12  2019     0      0 Iran             IR   
##  6 2019-12-31 00:00:00    31    12  2019     0      0 Italy            IT   
##  7 2019-12-31 00:00:00    31    12  2019     0      0 Spain            ES   
##  8 2019-12-31 00:00:00    31    12  2019     0      0 United_Kingdom   UK   
##  9 2019-12-31 00:00:00    31    12  2019     0      0 United_States_o US   
## 10 2020-01-01 00:00:00     1     1  2020     0      0 Brazil           BR   
## #  with 953 more rows, and 2 more variables: countryterritoryCode <chr>,
## #   popData2018 <dbl>
…
